{
	"code": 200,
	"meta": {
		"pagination": {
			"total": 1331,
			"pages": 67,
			"page": 1,
			"limit": 20
		}
	},
	"data": [
		{
			"id": 3,
			"user_id": 3,
			"title": "Autus pecco provident illum voluptates tergeo suffragium testimonium vorax somniculosus.",
			"body": "Crinis amita est. Delinquo attero inflammatio. Bene tabgo solus. Corona adstringo auxilium. Enim quibusdam ipsa. Delinquo possimus vos. Qui cauda armo. Non sed cura. Infit copiose correptius. Trepide nostrum aegrotatio. Annus voluptas tenax. Consequatur deludo stabilis. Tui blanditiis quia. Teneo textus perferendis. Absens cur aut. Basium spoliatio minus. Cenaculum tenetur quod. Derelinquo xiphias voluptas. Aut armarium molestiae. Textilis canto turpis.",
			"created_at": "2021-02-04T03:50:04.253+05:30",
			"updated_at": "2021-02-04T03:50:04.253+05:30"
		},
		{
			"id": 4,
			"user_id": 3,
			"title": "Antiquus villa vado vorago agnitio clamo.",
			"body": "Casus conspergo numquam. Pax delectus utroque. Bis votum suppellex. Acies apto bonus. Attollo conforto dolor. Pauper tabesco arguo. Consequatur ter auditor. Viridis socius in. Ea vulariter vomica. Balbus testimonium sed. Labore tum thymbra. Dolores delinquo aduro. Cibus cuppedia illum. Dolorem corona tunc. Velociter clibanus triginta. Veniam degusto vestrum. Dolores animi vinculum.",
			"created_at": "2021-02-04T03:50:04.26+05:30",
			"updated_at": "2021-02-04T03:50:04.26+05:30"
		},
		{
			"id": 9,
			"user_id": 11,
			"title": "Ager sophismata comparo eligendi atque sponte quia doloremque socius velum adduco sublime.",
			"body": "Iste viduo tricesimus. Et animus est. Vesco supra demergo. In corrumpo acsi. Aut atrox crebro. Doloribus antea volaticus. Suffragium casso vado. Sumo adiuvo uter. Unde vigilo avoco. Esse conspergo admiratio. Minima aureus calamitas. Creo aestivus corpus. Pauper contego texo. Cresco cupiditas totus. Tribuo volup absque.",
			"created_at": "2021-02-04T03:50:04.371+05:30",
			"updated_at": "2021-02-04T03:50:04.371+05:30"
		},
		{
			"id": 10,
			"user_id": 11,
			"title": "Clam verus vulnus adiuvo unde ventito paens ubi subseco earum.",
			"body": "Defero tendo error. Adfectus illum error. Acceptus copiose ter. Combibo ea deficio. Audeo curvus conservo. Admiratio urbs creator. Unde aspernatur omnis. Adflicto aut correptius. Asperiores compono coniuratio. Tenuis arbitro terror. Confido thermae cur. Tamisium caveo ea. Quis amet subiungo. Conqueror tristis excepturi. Abbas maiores itaque. Summopere clibanus depromo. Alo tepesco certe. Cogito accusamus caste. Arceo vigor defigo. Aurum beatae solio. Sto coma armo. Uter spiculum temptatio. Abeo assumenda cedo. Conduco cruentus suasoria. Vulnus crepusculum hic. Dolorum aveho aut. Tutis theca aptus.",
			"created_at": "2021-02-04T03:50:04.384+05:30",
			"updated_at": "2021-02-04T03:50:04.384+05:30"
		},
		{
			"id": 11,
			"user_id": 12,
			"title": "Minus optio color beatus contigo defungo trado est denique timor spectaculum adamo theologus minima magni undique cunabula aeger.",
			"body": "Incidunt consequatur amet. Amaritudo capitulus adnuo. Aut tyrannus copiose. Surculus et assumenda. Tremo infit vester. Comis talus curatio. Triumphus teneo synagoga. Somnus coma audeo. Decet amitto ustilo. Turbo aut ait. Crur cribro aqua. Conturbo ex utique. Aggredior caries substantia. Sono vociferor voluptatem. Sit bardus cuius. Incidunt creo vergo. Porro ventus copia. Sequi ea in. Dolorem acervus uter. Itaque statua et. Quasi minima video. Compello deludo similique. Sint esse brevis. Beatae desino officiis. Sustineo pauper copia. Cur coniecto deficio. Alius crustulum tergiversatio.",
			"created_at": "2021-02-04T03:50:04.409+05:30",
			"updated_at": "2021-02-04T03:50:04.409+05:30"
		},
		{
			"id": 12,
			"user_id": 12,
			"title": "Adinventitias sequi defungo abduco dedecor amicitia canto tripudio comburo coerceo ascisco doloremque carpo atqui eveniet summopere carmen ut.",
			"body": "Aequus advoco ipsam. Ater ea cohibeo. Est strenuus vero. Cometes pel ut. Tondeo summopere vulgivagus. Degenero auxilium depono. Cimentarius versus attonbitus. Nostrum surgo quos. Absum contabesco nemo. Videlicet tricesimus verus. Arbitro super fugit. Tempora amicitia libero. Aut suggero vis. Voluptatum baiulus enim. Somnus vociferor considero. Aer decet derelinquo. Basium victus venio.",
			"created_at": "2021-02-04T03:50:04.42+05:30",
			"updated_at": "2021-02-04T03:50:04.42+05:30"
		},
		{
			"id": 13,
			"user_id": 13,
			"title": "Itaque occaecati aqua veritatis cohibeo candidus decumbo vespillo quo caecus attollo desparatus comminor.",
			"body": "Pariatur via cornu. Coniuratio adulescens delibero. Cursim temporibus aveho. Ascisco dolor ut. Arbitro conspergo infit. Et labore delectatio. Decet audeo desolo. Vero turbo deporto. Assentator vulgus bestia. Valde tergum angulus. Bellum caterva vigilo. Substantia acies adsidue. Tersus laboriosam ancilla. Communis omnis thorax. Sulum tamquam cognomen. Concedo civis volup. Cum tardus vapulus. Alius comedo et. Adimpleo volo strues. Sulum defessus est. Conspergo pectus armarium.",
			"created_at": "2021-02-04T03:50:04.44+05:30",
			"updated_at": "2021-02-04T03:50:04.44+05:30"
		},
		{
			"id": 14,
			"user_id": 13,
			"title": "Solio laudantium terebro crustulum cupiditate tamisium sufficio degero.",
			"body": "Carbo tandem cattus. Atque volo voluptas. Strues capio demo. Spes nam pecco. Colloco odio angustus. Audax claro volva. Charisma arto apto. Stella temporibus theologus. Supplanto ipsa ducimus. Et theatrum causa. Solutio tandem vociferor. Decet rerum vaco. Voluptate aegrotatio ceno. Agnosco calcar carcer. Vae aut tactus. Denego canonicus maxime. Terga totidem pel. Articulus debeo crastinus. Amor tremo paulatim. Truculenter placeat tendo.",
			"created_at": "2021-02-04T03:50:04.449+05:30",
			"updated_at": "2021-02-04T03:50:04.449+05:30"
		},
		{
			"id": 15,
			"user_id": 14,
			"title": "Alveus communis anser tutamen cresco provident capto vitium corpus sequi timor consectetur quibusdam vulticulus decet iusto coepi accusantium nesciunt.",
			"body": "Demens uterque suscipit. Sumo terga stella. Qui aro consuasor. Aetas vulgaris torqueo. Comes placeat pecus. Decerno curtus cras. Dolorum colloco nesciunt. Corpus caries annus. Arcesso umquam non. Caveo adultus vel. Confero custodia tego. Defendo supplanto et. Damno vicissitudo amiculum. Ambulo tenetur universe. Cimentarius theca velit. Cunabula ustulo aut. Adaugeo tactus canis. Cumque conservo thymum. Arceo voluptas approbo. Decor vigilo viriliter. Adiuvo umbra velociter. Copia voluptatem vomer. Spiritus tyrannus est.",
			"created_at": "2021-02-04T03:50:04.466+05:30",
			"updated_at": "2021-02-04T03:50:04.466+05:30"
		},
		{
			"id": 16,
			"user_id": 14,
			"title": "Ait armarium deleniti aranea copiose apto ut vere quidem beatus aut conventus voluptatem sustineo carpo blandior candidus cresco.",
			"body": "Utpote ancilla urbanus. Paulatim coniecto pecus. Viduo statim soluta. Auctor labore deprimo. Capitulus arca tui. Animi aut usque. Thesaurus defluo sed. Cernuus crux accipio. Enim ab antiquus. Aro asporto acsi. Virgo trucido arbustum. Conitor ter vicinus. Compello dolorem bonus. Depraedor cursus et. Error angelus eveniet. Laborum cupiditate verus. Articulus curia adeo. Adstringo ait tener. Delicate tergeo suasoria. Audio truculenter libero. Defaeco auditor ago. Ventus patruus asporto. Voluptatum conqueror tergo. Debeo aptus desolo. Hic earum canonicus.",
			"created_at": "2021-02-04T03:50:04.474+05:30",
			"updated_at": "2021-02-04T03:50:04.474+05:30"
		},
		{
			"id": 17,
			"user_id": 15,
			"title": "Doloribus adinventitias ciminatio solvo vesica mollitia utpote sunt.",
			"body": "Voluptatem depraedor vos. Curriculum eveniet tribuo. Dedecor recusandae bellum. Architecto terga triumphus. Deduco pecunia ut. Sit sto tunc. Cubitum capio ante. Valetudo verbum uxor. Angelus aduro acsi. Molestiae utilis conscendo. Canonicus termes correptius. Urbanus est tabgo. Sed aetas cerno. Cedo tabesco cauda. Censura quis ater. Ars solutio ambulo. Turpe correptius vicissitudo. Vindico torrens speculum. Bibo avoco caries. Cuppedia blandior alius. Denego qui arceo. Vicinus tubineus angulus. Solio villa ratione.",
			"created_at": "2021-02-04T03:50:04.488+05:30",
			"updated_at": "2021-02-04T03:50:04.488+05:30"
		},
		{
			"id": 18,
			"user_id": 15,
			"title": "Tabernus aranea pauci votum cunabula absque aegrotatio ara vapulus verbera armarium ratione coniecto tutamen voveo.",
			"body": "Vir aestivus adsuesco. Quo tendo cometes. Commemoro certo convoco. Concido decimus unde. Vigor et ater. Turbo ustilo sursum. Calco quae vesica. Volubilis stillicidium sulum. Pel ascisco architecto. Ex carcer aut. Benevolentia adstringo pecus. Bonus speculum civis. Argumentum curriculum curvo. Basium vos sed. Solvo vapulus ad. Dolor appono voluptatem. Spoliatio decretum soluta. Civis eum deleo. Vaco ventito collum. Coniecto territo paulatim. Blanditiis verecundia tactus. Cursim crinis totus. Una alveus studio. Curiositas aqua tyrannus.",
			"created_at": "2021-02-04T03:50:04.496+05:30",
			"updated_at": "2021-02-04T03:50:04.496+05:30"
		},
		{
			"id": 19,
			"user_id": 17,
			"title": "Auditor abeo est aegrus bene sperno commodi victoria solvo bis capto aliquam amplus.",
			"body": "Testimonium sto conventus. Quia accipio arbitro. Certe decipio complectus. Bellum creo vilitas. Tricesimus cicuta curso. Supra caterva concido. Voluptas confero tergiversatio. Tondeo absconditus conitor. Comitatus creta tollo. Bellicus denuncio clibanus. Crinis deorsum accipio. Maiores sordeo contabesco. Aeneus et avaritia. Tum sequi cervus. Spargo necessitatibus voluptas.",
			"created_at": "2021-02-04T03:50:04.515+05:30",
			"updated_at": "2021-02-04T03:50:04.515+05:30"
		},
		{
			"id": 20,
			"user_id": 17,
			"title": "Considero crudelis delibero cursus voluptatibus nostrum paulatim socius atrox celebrer autem vobis curvus tenetur aduro defendo candidus surgo.",
			"body": "Termes super coniuratio. Delibero caterva depulso. Unde canto sustineo. In carpo abscido. Claudeo angulus omnis. Crebro xiphias comminor. Argentum ver aetas. Beatus conatus temptatio. Cur totus umerus. Repudiandae custodia voluptatem. In cito certe. Timor sustineo adeptio. Vulpes corrupti solus. Comptus ait virgo. Urbs appono cariosus. Amitto aggero vestigium. Pax molestiae ut. Debitis sustineo et. Aer doloremque veniam. Vulnus tamisium sollicito. Vehemens defessus coadunatio. Voluntarius addo una. Officiis conor dolor. A rerum causa. Antiquus cernuus varius. Sonitus utrimque contra. Vox supra pecto.",
			"created_at": "2021-02-04T03:50:04.533+05:30",
			"updated_at": "2021-02-04T03:50:04.533+05:30"
		},
		{
			"id": 21,
			"user_id": 18,
			"title": "Vita debilito repellendus veritatis et varietas totam venia versus vel.",
			"body": "Colo occaecati ad. Valetudo amplus trucido. Tabesco tracto voco. Decimus fuga necessitatibus. Virtus uberrime viscus. Supplanto viridis sed. Vero cedo cruciamentum. Accedo crastinus sustineo. Veritatis beneficium totidem. Thymum vere esse. Acquiro fuga molestias. Stipes voluptatem curo. Delinquo conicio atavus. Amplus decerno sulum. Dolores id coniecto. Tumultus molestiae supplanto. Autus cado subseco. Commodi optio in. Somnus vindico cruentus. Enim nihil vito. Ad ut cupiditas. Pecunia praesentium uredo. Autem confugo auctus. Voluptate tristis adeo. Vigor quos bene. Appositus catena tibi. Tabesco advoco ademptio. Xiphias adinventitias aperio.",
			"created_at": "2021-02-04T03:50:04.551+05:30",
			"updated_at": "2021-02-04T03:50:04.551+05:30"
		},
		{
			"id": 22,
			"user_id": 19,
			"title": "Combibo certe beatae cimentarius sufficio amplexus tenuis turba clarus comis patrocinor basium coruscus deprimo pecus arx uberrime.",
			"body": "Sollicito demonstro quae. Voluptatibus allatus truculenter. Argentum decipio cum. Ater quis suus. Conitor ascisco spero. Succurro vestrum accusamus. Aut sumptus suus. Approbo vel creptio. Aequitas circumvenio alveus. Condico constans repellat. Vorax voluptatem creber. Patior tam cetera. Vinculum attollo claro. Traho defleo cresco. Aperio cavus tunc. Tandem ut eos. Aestas tubineus coniuratio.",
			"created_at": "2021-02-04T03:50:04.561+05:30",
			"updated_at": "2021-02-04T03:50:04.561+05:30"
		},
		{
			"id": 26,
			"user_id": 23,
			"title": "Voluptates strues rerum conitor virga pax canto sordeo usitas tubineus non amaritudo cursim appono nisi ultra perferendis.",
			"body": "Inventore non theologus. Vergo in adnuo. Apto dolor subiungo. Conatus suscipit sunt. Bestia angustus qui. Contigo addo minima. Aut timidus et. Cuppedia est careo. Coma velut amita. Ver bardus sto. Vindico numquam conicio. Saepe unde villa. Canis quos cuius. Eos thymum vulnero. Tricesimus utilis vesco.",
			"created_at": "2021-02-04T03:50:04.63+05:30",
			"updated_at": "2021-02-04T03:50:04.63+05:30"
		},
		{
			"id": 27,
			"user_id": 23,
			"title": "Aperte spectaculum alias defendo volubilis comparo ait brevis dedecor tempore ex vulariter victoria vigilo umquam accusator cupressus in vel.",
			"body": "Adstringo coerceo qui. Surculus doloremque verus. Colo exercitationem correptius. Comitatus accusantium aliqua. Timidus tenuis super. Vinum sollicito caelestis. Demo maiores tamisium. Alo defigo crux. Sit alter denuo. Harum turbo eligendi. Ascit approbo ager. Sto temporibus thorax. Arbitro vulgo peior. Defessus sollicito abeo. Comburo congregatio comedo. Crapula tabesco accipio. Aut tamdiu sit. Quidem depereo amet. Certus surgo amoveo. Sit bellum terreo. Pectus cultura tremo. Est centum omnis. Statim conitor taedium. Charisma cui demergo. Ipsum ipsam acquiro. Natus eaque cur. Comminor verus auxilium. Tandem armarium fugiat.",
			"created_at": "2021-02-04T03:50:04.644+05:30",
			"updated_at": "2021-02-04T03:50:04.644+05:30"
		},
		{
			"id": 28,
			"user_id": 25,
			"title": "Acceptus copiose succedo urbanus speciosus appello tepidus odit pauci curatio advoco vilicus adimpleo defendo spectaculum uredo avarus traho.",
			"body": "Ocer despecto supplanto. Delectus officiis ipsum. Temptatio sit ago. Hic molestias patria. Aegrotatio aggero demonstro. Cumque antiquus omnis. Apto consequatur illo. Volup adulatio vetus. Culpa ademptio laborum. Summisse spero communis. Soluta hic cimentarius. Soleo comedo vulgivagus. Balbus avoco voluptas. Urbanus natus degusto. Distinctio attonbitus urbanus. Reprehenderit placeat sodalitas. Tunc cum pectus. Ad textor suadeo. Attonbitus catena attero. Beneficium animus adimpleo. Et id truculenter. Solum animadverto ambulo. Vomica averto studio.",
			"created_at": "2021-02-04T03:50:04.677+05:30",
			"updated_at": "2021-02-04T03:50:04.677+05:30"
		},
		{
			"id": 29,
			"user_id": 27,
			"title": "Numquam turba sit suasoria trepide asporto contigo aequus odio qui sunt desolo cras vinco volubilis admitto sumptus substantia.",
			"body": "Alienus ambulo desolo. Cornu carbo solus. Cum vel nisi. Velit soleo iusto. Canto alo maiores. Canis ipsam amicitia. Ambitus carus constans. Vir timor vita. Cresco sapiente viriliter. Totus tam suppono. Crudelis adflicto coruscus. Velociter comis laudantium. Statim ut cribro. Deprecator strues sed. Amplexus creta compono. Coniecto veritatis sumo. Tristis tantum solum.",
			"created_at": "2021-02-04T03:50:04.698+05:30",
			"updated_at": "2021-02-04T03:50:04.698+05:30"
		}
	]
}