{
	"code": 200,
	"meta": {
		"pagination": {
			"total": 1429,
			"pages": 72,
			"page": 1,
			"limit": 20
		}
	},
	"data": [
		{
			"id": 3,
			"name": "Bhramar Embranthiri II",
			"email": "ii_embranthiri_bhramar@baumbach.name",
			"gender": "Female",
			"status": "Active",
			"created_at": "2021-02-04T03:50:04.247+05:30",
			"updated_at": "2021-02-04T03:50:04.247+05:30"
		},
		{
			"id": 7,
			"name": "The Hon. Bhadraksh Chopra",
			"email": "the_hon_bhadraksh_chopra@bogan-bosco.com",
			"gender": "Female",
			"status": "Inactive",
			"created_at": "2021-02-04T03:50:04.318+05:30",
			"updated_at": "2021-02-04T03:50:04.318+05:30"
		},
		{
			"id": 10,
			"name": "rayees",
			"email": "satyen_tagore@thiel-hand.net",
			"gender": "Female",
			"status": "Active",
			"created_at": "2021-02-04T03:50:04.357+05:30",
			"updated_at": "2021-02-04T12:34:44.675+05:30"
		},
		{
			"id": 11,
			"name": "Akshita Reddy V",
			"email": "reddy_v_akshita@purdy.biz",
			"gender": "Female",
			"status": "Active",
			"created_at": "2021-02-04T03:50:04.366+05:30",
			"updated_at": "2021-02-04T03:50:04.366+05:30"
		},
		{
			"id": 12,
			"name": "gopal",
			"email": "mishra_aruna@koch-bosco.biz",
			"gender": "Female",
			"status": "Inactive",
			"created_at": "2021-02-04T03:50:04.402+05:30",
			"updated_at": "2021-02-04T12:28:40.794+05:30"
		},
		{
			"id": 13,
			"name": "Purnima Butt",
			"email": "purnima_butt@hoppe.name",
			"gender": "Female",
			"status": "Active",
			"created_at": "2021-02-04T03:50:04.431+05:30",
			"updated_at": "2021-02-04T03:50:04.431+05:30"
		},
		{
			"id": 14,
			"name": "Bela Varma",
			"email": "bela_varma@hilll.com",
			"gender": "Male",
			"status": "Active",
			"created_at": "2021-02-04T03:50:04.459+05:30",
			"updated_at": "2021-02-04T03:50:04.459+05:30"
		},
		{
			"id": 15,
			"name": "Tarun Khan",
			"email": "khan_tarun@cremin.com",
			"gender": "Male",
			"status": "Active",
			"created_at": "2021-02-04T03:50:04.481+05:30",
			"updated_at": "2021-02-04T03:50:04.481+05:30"
		},
		{
			"id": 16,
			"name": "Sitara Agarwal",
			"email": "sitara_agarwal@bashirian.net",
			"gender": "Female",
			"status": "Inactive",
			"created_at": "2021-02-04T03:50:04.504+05:30",
			"updated_at": "2021-02-04T03:50:04.504+05:30"
		},
		{
			"id": 17,
			"name": "Mr. Agneya Deshpande",
			"email": "mr_deshpande_agneya@rutherford.co",
			"gender": "Female",
			"status": "Active",
			"created_at": "2021-02-04T03:50:04.511+05:30",
			"updated_at": "2021-02-04T03:50:04.511+05:30"
		},
		{
			"id": 18,
			"name": "Ajeet Dwivedi",
			"email": "dwivedi_ajeet@homenick.name",
			"gender": "Male",
			"status": "Inactive",
			"created_at": "2021-02-04T03:50:04.545+05:30",
			"updated_at": "2021-02-04T03:50:04.545+05:30"
		},
		{
			"id": 19,
			"name": "Kanak Bandopadhyay",
			"email": "bandopadhyay_kanak@wolff.biz",
			"gender": "Female",
			"status": "Active",
			"created_at": "2021-02-04T03:50:04.556+05:30",
			"updated_at": "2021-02-04T03:50:04.556+05:30"
		},
		{
			"id": 20,
			"name": "The Hon. Abhaya Patel",
			"email": "hon_patel_abhaya_the@upton.info",
			"gender": "Male",
			"status": "Active",
			"created_at": "2021-02-04T03:50:04.57+05:30",
			"updated_at": "2021-02-04T03:50:04.57+05:30"
		},
		{
			"id": 23,
			"name": "Sen. Kumar Guha",
			"email": "kumar_guha_sen@renner-wilderman.com",
			"gender": "Male",
			"status": "Inactive",
			"created_at": "2021-02-04T03:50:04.623+05:30",
			"updated_at": "2021-02-04T03:50:04.623+05:30"
		},
		{
			"id": 24,
			"name": "Fr. Sweta Jain",
			"email": "jain_sweta_fr@wuckert.com",
			"gender": "Female",
			"status": "Inactive",
			"created_at": "2021-02-04T03:50:04.659+05:30",
			"updated_at": "2021-02-04T03:50:04.659+05:30"
		},
		{
			"id": 25,
			"name": "Shankar Tagore",
			"email": "tagore_shankar@simonis-klein.com",
			"gender": "Female",
			"status": "Inactive",
			"created_at": "2021-02-04T03:50:04.668+05:30",
			"updated_at": "2021-02-04T03:50:04.668+05:30"
		},
		{
			"id": 26,
			"name": "Washington Luis Cabral da Silva",
			"email": "wluissilva@live.com",
			"gender": "Male",
			"status": "Active",
			"created_at": "2021-02-04T03:50:04.69+05:30",
			"updated_at": "2021-02-04T08:39:32.879+05:30"
		},
		{
			"id": 27,
			"name": "Devika Marar Esq.",
			"email": "devika_marar_esq@fadel.biz",
			"gender": "Male",
			"status": "Inactive",
			"created_at": "2021-02-04T03:50:04.693+05:30",
			"updated_at": "2021-02-04T03:50:04.693+05:30"
		},
		{
			"id": 28,
			"name": "Tanushri Acharya",
			"email": "tanushri_acharya@frami.name",
			"gender": "Female",
			"status": "Inactive",
			"created_at": "2021-02-04T03:50:04.713+05:30",
			"updated_at": "2021-02-04T03:50:04.713+05:30"
		},
		{
			"id": 29,
			"name": "Baidehi Chopra",
			"email": "chopra_baidehi@bechtelar.com",
			"gender": "Male",
			"status": "Inactive",
			"created_at": "2021-02-04T03:50:04.716+05:30",
			"updated_at": "2021-02-04T03:50:04.716+05:30"
		}
	]
}