{
	"code": 200,
	"meta": {
		"pagination": {
			"total": 742,
			"pages": 38,
			"page": 1,
			"limit": 20
		}
	},
	"data": [
		{
			"id": 1,
			"user_id": 0,
			"title": "",
			"completed": false,
			"created_at": "0001-01-01T00:00:00Z",
			"updated_at": "0001-01-01T00:00:00Z"
		},
		{
			"id": 2,
			"user_id": 0,
			"title": "",
			"completed": false,
			"created_at": "0001-01-01T00:00:00Z",
			"updated_at": "0001-01-01T00:00:00Z"
		},
		{
			"id": 3,
			"user_id": 0,
			"title": "",
			"completed": false,
			"created_at": "0001-01-01T00:00:00Z",
			"updated_at": "0001-01-01T00:00:00Z"
		},
		{
			"id": 4,
			"user_id": 0,
			"title": "",
			"completed": false,
			"created_at": "0001-01-01T00:00:00Z",
			"updated_at": "0001-01-01T00:00:00Z"
		},
		{
			"id": 5,
			"user_id": 0,
			"title": "",
			"completed": false,
			"created_at": "0001-01-01T00:00:00Z",
			"updated_at": "0001-01-01T00:00:00Z"
		},
		{
			"id": 6,
			"user_id": 0,
			"title": "",
			"completed": false,
			"created_at": "0001-01-01T00:00:00Z",
			"updated_at": "0001-01-01T00:00:00Z"
		},
		{
			"id": 7,
			"user_id": 0,
			"title": "",
			"completed": false,
			"created_at": "0001-01-01T00:00:00Z",
			"updated_at": "0001-01-01T00:00:00Z"
		},
		{
			"id": 8,
			"user_id": 0,
			"title": "",
			"completed": false,
			"created_at": "0001-01-01T00:00:00Z",
			"updated_at": "0001-01-01T00:00:00Z"
		},
		{
			"id": 9,
			"user_id": 0,
			"title": "",
			"completed": false,
			"created_at": "0001-01-01T00:00:00Z",
			"updated_at": "0001-01-01T00:00:00Z"
		},
		{
			"id": 10,
			"user_id": 0,
			"title": "",
			"completed": false,
			"created_at": "0001-01-01T00:00:00Z",
			"updated_at": "0001-01-01T00:00:00Z"
		},
		{
			"id": 11,
			"user_id": 0,
			"title": "",
			"completed": false,
			"created_at": "0001-01-01T00:00:00Z",
			"updated_at": "0001-01-01T00:00:00Z"
		},
		{
			"id": 12,
			"user_id": 0,
			"title": "",
			"completed": false,
			"created_at": "0001-01-01T00:00:00Z",
			"updated_at": "0001-01-01T00:00:00Z"
		},
		{
			"id": 13,
			"user_id": 0,
			"title": "",
			"completed": false,
			"created_at": "0001-01-01T00:00:00Z",
			"updated_at": "0001-01-01T00:00:00Z"
		},
		{
			"id": 14,
			"user_id": 0,
			"title": "",
			"completed": false,
			"created_at": "0001-01-01T00:00:00Z",
			"updated_at": "0001-01-01T00:00:00Z"
		},
		{
			"id": 15,
			"user_id": 0,
			"title": "",
			"completed": false,
			"created_at": "0001-01-01T00:00:00Z",
			"updated_at": "0001-01-01T00:00:00Z"
		},
		{
			"id": 16,
			"user_id": 0,
			"title": "",
			"completed": false,
			"created_at": "0001-01-01T00:00:00Z",
			"updated_at": "0001-01-01T00:00:00Z"
		},
		{
			"id": 17,
			"user_id": 0,
			"title": "",
			"completed": false,
			"created_at": "0001-01-01T00:00:00Z",
			"updated_at": "0001-01-01T00:00:00Z"
		},
		{
			"id": 18,
			"user_id": 0,
			"title": "",
			"completed": false,
			"created_at": "0001-01-01T00:00:00Z",
			"updated_at": "0001-01-01T00:00:00Z"
		},
		{
			"id": 19,
			"user_id": 0,
			"title": "",
			"completed": false,
			"created_at": "0001-01-01T00:00:00Z",
			"updated_at": "0001-01-01T00:00:00Z"
		},
		{
			"id": 20,
			"user_id": 0,
			"title": "",
			"completed": false,
			"created_at": "0001-01-01T00:00:00Z",
			"updated_at": "0001-01-01T00:00:00Z"
		}
	]
}