{
 "code": 200,
 "meta": {
  "pagination": {
   "total": 1299,
   "pages": 65,
   "page": 1,
   "limit": 20
  }
 },
 "data": [
  {
   "id": 5,
   "post_id": 3,
   "name": "Dinakar Bharadwaj",
   "email": "bharadwaj_dinakar@ankunding-mayer.com",
   "body": "Fugiat et quis. Nulla tenetur totam. Nesciunt iusto iure.",
   "created_at": "2021-02-04T03:50:04.255+05:30",
   "updated_at": "2021-02-04T03:50:04.255+05:30"
  },
  {
   "id": 7,
   "post_id": 4,
   "name": "Manjusha Bhattathiri",
   "email": "manjusha_bhattathiri@blick-pacocha.com",
   "body": "Odit ad ut. Magnam in neque.",
   "created_at": "2021-02-04T03:50:04.266+05:30",
   "updated_at": "2021-02-04T03:50:04.266+05:30"
  },
  {
   "id": 11,
   "post_id": 9,
   "name": "Anal Jha Esq.",
   "email": "anal_jha_esq@wehner.info",
   "body": "Asperiores non omnis. Voluptas asperiores expedita. Quo ut eos.",
   "created_at": "2021-02-04T03:50:04.375+05:30",
   "updated_at": "2021-02-04T03:50:04.375+05:30"
  },
  {
   "id": 12,
   "post_id": 10,
   "name": "Pres. Anandamayi Dwivedi",
   "email": "pres_dwivedi_anandamayi@labadie.co",
   "body": "Non dolor consectetur. Accusantium quia ex. Earum voluptatem natus.",
   "created_at": "2021-02-04T03:50:04.389+05:30",
   "updated_at": "2021-02-04T03:50:04.389+05:30"
  },
  {
   "id": 13,
   "post_id": 10,
   "name": "Prasanna Gandhi",
   "email": "prasanna_gandhi@collier.co",
   "body": "Modi repudiandae debitis. Temporibus officia harum. Dignissimos nam suscipit. Iusto occaecati quos.",
   "created_at": "2021-02-04T03:50:04.393+05:30",
   "updated_at": "2021-02-04T03:50:04.393+05:30"
  },
  {
   "id": 14,
   "post_id": 11,
   "name": "Gov. Aadi Tagore",
   "email": "aadi_tagore_gov@wisozk.net",
   "body": "Voluptatem exercitationem libero. Aliquid beatae itaque. Nostrum veniam molestias.",
   "created_at": "2021-02-04T03:50:04.412+05:30",
   "updated_at": "2021-02-04T03:50:04.412+05:30"
  },
  {
   "id": 15,
   "post_id": 11,
   "name": "Dhanesh Nayar",
   "email": "nayar_dhanesh@welch.net",
   "body": "Nihil quo et. Et voluptates beatae. Eos tenetur qui.",
   "created_at": "2021-02-04T03:50:04.415+05:30",
   "updated_at": "2021-02-04T03:50:04.415+05:30"
  },
  {
   "id": 16,
   "post_id": 16,
   "name": "Garuda Sinha II",
   "email": "garuda_ii_sinha@hammes.biz",
   "body": "Aut praesentium dolores. Quia accusantium nesciunt. Expedita debitis et.",
   "created_at": "2021-02-04T03:50:04.478+05:30",
   "updated_at": "2021-02-04T03:50:04.478+05:30"
  },
  {
   "id": 17,
   "post_id": 17,
   "name": "Subhashini Rana",
   "email": "subhashini_rana@labadie.co",
   "body": "Soluta qui et. Quis natus sint.",
   "created_at": "2021-02-04T03:50:04.491+05:30",
   "updated_at": "2021-02-04T03:50:04.491+05:30"
  },
  {
   "id": 18,
   "post_id": 19,
   "name": "Prof. Bhanumati Khanna",
   "email": "khanna_bhanumati_prof@osinski.net",
   "body": "Et rerum soluta. Amet asperiores et. Nulla aut aut.",
   "created_at": "2021-02-04T03:50:04.518+05:30",
   "updated_at": "2021-02-04T03:50:04.518+05:30"
  },
  {
   "id": 19,
   "post_id": 20,
   "name": "Deveshwar Khan",
   "email": "khan_deveshwar@wisozk.com",
   "body": "Non quia rem. Sapiente quam et.",
   "created_at": "2021-02-04T03:50:04.537+05:30",
   "updated_at": "2021-02-04T03:50:04.537+05:30"
  },
  {
   "id": 20,
   "post_id": 22,
   "name": "Devagya Tandon",
   "email": "tandon_devagya@baumbach-macgyver.info",
   "body": "Iste dolores dignissimos.",
   "created_at": "2021-02-04T03:50:04.564+05:30",
   "updated_at": "2021-02-04T03:50:04.564+05:30"
  },
  {
   "id": 24,
   "post_id": 26,
   "name": "Bhaumik Adiga",
   "email": "bhaumik_adiga@bartell-koepp.biz",
   "body": "Dignissimos sint aperiam. Et quos sed.",
   "created_at": "2021-02-04T03:50:04.634+05:30",
   "updated_at": "2021-02-04T03:50:04.634+05:30"
  },
  {
   "id": 25,
   "post_id": 27,
   "name": "Bhishma Naik",
   "email": "bhishma_naik@donnelly-rau.co",
   "body": "Cupiditate a odio.",
   "created_at": "2021-02-04T03:50:04.648+05:30",
   "updated_at": "2021-02-04T03:50:04.648+05:30"
  },
  {
   "id": 26,
   "post_id": 27,
   "name": "Bhadran Bhat",
   "email": "bhadran_bhat@collier-muller.org",
   "body": "Officia ipsum pariatur.",
   "created_at": "2021-02-04T03:50:04.651+05:30",
   "updated_at": "2021-02-04T03:50:04.651+05:30"
  },
  {
   "id": 27,
   "post_id": 28,
   "name": "Kannen Guneta",
   "email": "kannen_guneta@little-kiehn.info",
   "body": "Veritatis aut quidem. Ducimus ea nihil.",
   "created_at": "2021-02-04T03:50:04.681+05:30",
   "updated_at": "2021-02-04T03:50:04.681+05:30"
  },
  {
   "id": 28,
   "post_id": 28,
   "name": "Goutam Dubashi",
   "email": "goutam_dubashi@mraz.org",
   "body": "Natus consectetur officiis.",
   "created_at": "2021-02-04T03:50:04.684+05:30",
   "updated_at": "2021-02-04T03:50:04.684+05:30"
  },
  {
   "id": 29,
   "post_id": 30,
   "name": "Achyut Bandopadhyay",
   "email": "achyut_bandopadhyay@homenick-blick.name",
   "body": "Tempore quo quod. Laborum sequi neque. Quam delectus vitae.",
   "created_at": "2021-02-04T03:50:04.708+05:30",
   "updated_at": "2021-02-04T03:50:04.708+05:30"
  },
  {
   "id": 30,
   "post_id": 30,
   "name": "Shiv Khanna",
   "email": "shiv_khanna@roberts.co",
   "body": "Consequatur omnis adipisci.",
   "created_at": "2021-02-04T03:50:04.71+05:30",
   "updated_at": "2021-02-04T03:50:04.71+05:30"
  },
  {
   "id": 31,
   "post_id": 33,
   "name": "Rameshwar Nair",
   "email": "nair_rameshwar@hills.info",
   "body": "Dolores est at. Corporis id illo. Dolor non suscipit.",
   "created_at": "2021-02-04T03:50:04.743+05:30",
   "updated_at": "2021-02-04T03:50:04.743+05:30"
  }
 ]
}