{
	"code": 200,
	"meta": {
		"pagination": {
			"total": 1937,
			"pages": 97,
			"page": 1,
			"limit": 20
		}
	},
	"data": [
		{
			"id": 7,
			"user_id": 7,
			"title": "Adduco suggero comedo curis tergeo adfectus votum cena voluptatibus.",
			"completed": true,
			"created_at": "2021-02-04T03:50:04.321+05:30",
			"updated_at": "2021-02-04T03:50:04.321+05:30"
		},
		{
			"id": 10,
			"user_id": 10,
			"title": "Crur tricesimus tot varius vorax sub compello non vallum verecundia bos.",
			"completed": true,
			"created_at": "2021-02-04T03:50:04.359+05:30",
			"updated_at": "2021-02-04T03:50:04.359+05:30"
		},
		{
			"id": 11,
			"user_id": 10,
			"title": "Rem certo et sum expedita summa amita curo.",
			"completed": true,
			"created_at": "2021-02-04T03:50:04.361+05:30",
			"updated_at": "2021-02-04T03:50:04.361+05:30"
		},
		{
			"id": 12,
			"user_id": 10,
			"title": "Approbo sperno delectatio terebro demergo aptus cubitum amplexus curriculum apparatus carmen.",
			"completed": true,
			"created_at": "2021-02-04T03:50:04.363+05:30",
			"updated_at": "2021-02-04T03:50:04.363+05:30"
		},
		{
			"id": 13,
			"user_id": 11,
			"title": "Cras deputo canto thorax vito votum depulso.",
			"completed": true,
			"created_at": "2021-02-04T03:50:04.398+05:30",
			"updated_at": "2021-02-04T03:50:04.398+05:30"
		},
		{
			"id": 14,
			"user_id": 12,
			"title": "Corrigo maxime calamitas synagoga rem.",
			"completed": true,
			"created_at": "2021-02-04T03:50:04.423+05:30",
			"updated_at": "2021-02-04T03:50:04.423+05:30"
		},
		{
			"id": 15,
			"user_id": 12,
			"title": "Civitas aufero excepturi sophismata confugo sunt dolore cubicularis.",
			"completed": false,
			"created_at": "2021-02-04T03:50:04.425+05:30",
			"updated_at": "2021-02-04T03:50:04.425+05:30"
		},
		{
			"id": 16,
			"user_id": 12,
			"title": "Addo aveho conspergo valde chirographum vesica talis denique carpo.",
			"completed": false,
			"created_at": "2021-02-04T03:50:04.427+05:30",
			"updated_at": "2021-02-04T03:50:04.427+05:30"
		},
		{
			"id": 17,
			"user_id": 13,
			"title": "Conicio triduana verto sumptus sophismata iusto apto voluptatem calamitas caute.",
			"completed": false,
			"created_at": "2021-02-04T03:50:04.452+05:30",
			"updated_at": "2021-02-04T03:50:04.452+05:30"
		},
		{
			"id": 18,
			"user_id": 13,
			"title": "Administratio voluptas denuo pectus absens tergum vetus coruscus.",
			"completed": false,
			"created_at": "2021-02-04T03:50:04.456+05:30",
			"updated_at": "2021-02-04T03:50:04.456+05:30"
		},
		{
			"id": 19,
			"user_id": 15,
			"title": "Molestiae communis villa abscido vespillo coma.",
			"completed": true,
			"created_at": "2021-02-04T03:50:04.499+05:30",
			"updated_at": "2021-02-04T03:50:04.499+05:30"
		},
		{
			"id": 20,
			"user_id": 15,
			"title": "Tardus thema crudelis stipes voluptatem.",
			"completed": true,
			"created_at": "2021-02-04T03:50:04.501+05:30",
			"updated_at": "2021-02-04T03:50:04.501+05:30"
		},
		{
			"id": 21,
			"user_id": 16,
			"title": "Vitium fugiat ater credo totus nihil et dedecor arceo amoveo campana.",
			"completed": false,
			"created_at": "2021-02-04T03:50:04.506+05:30",
			"updated_at": "2021-02-04T03:50:04.506+05:30"
		},
		{
			"id": 22,
			"user_id": 16,
			"title": "Maiores depraedor curis sordeo voluptatum strenuus uxor cinis absque vitae.",
			"completed": true,
			"created_at": "2021-02-04T03:50:04.508+05:30",
			"updated_at": "2021-02-04T03:50:04.508+05:30"
		},
		{
			"id": 23,
			"user_id": 17,
			"title": "Nam arma conservo torqueo carbo.",
			"completed": false,
			"created_at": "2021-02-04T03:50:04.539+05:30",
			"updated_at": "2021-02-04T03:50:04.539+05:30"
		},
		{
			"id": 24,
			"user_id": 17,
			"title": "Brevis crepusculum certus deinde depraedor deleniti.",
			"completed": false,
			"created_at": "2021-02-04T03:50:04.541+05:30",
			"updated_at": "2021-02-04T03:50:04.541+05:30"
		},
		{
			"id": 25,
			"user_id": 18,
			"title": "Villa utilis theca tribuo tandem cognatus.",
			"completed": false,
			"created_at": "2021-02-04T03:50:04.553+05:30",
			"updated_at": "2021-02-04T03:50:04.553+05:30"
		},
		{
			"id": 26,
			"user_id": 19,
			"title": "Cum charisma copiose clam avoco appello corporis acquiro.",
			"completed": true,
			"created_at": "2021-02-04T03:50:04.566+05:30",
			"updated_at": "2021-02-04T03:50:04.566+05:30"
		},
		{
			"id": 27,
			"user_id": 20,
			"title": "Stipes sodalitas debilito coniuratio repudiandae omnis careo doloribus cernuus dolores accusamus.",
			"completed": true,
			"created_at": "2021-02-04T03:50:04.573+05:30",
			"updated_at": "2021-02-04T03:50:04.573+05:30"
		},
		{
			"id": 28,
			"user_id": 20,
			"title": "Est thymbra antea tondeo artificiose est cito et tabella validus.",
			"completed": true,
			"created_at": "2021-02-04T03:50:04.576+05:30",
			"updated_at": "2021-02-04T03:50:04.576+05:30"
		}
	]
}